{
    "cardholders": [
        { 
            "_id" : "5e8d6da8a387c752dc3e6886", 
            "number" : "32764500", 
            "name" : "Luis", 
            "lastname" : "Marquez Lopez", 
            "password" : "12341234", 
            "email" : "luis@gmail.com"
        },
        { 
            "_id" : "5e8d6dcca387c752dc3e6887", 
            "number" : "67200867", 
            "name" : "Manuel", 
            "lastname" : "Salazar Guzmán", 
            "password" : "43214321", 
            "email" : "manuel@gmail.com"
        },
        { 
            "_id" : "5e8d6ddea387c752dc3e6888", 
            "number" : "23099786", 
            "name" : "Diana", 
            "lastname" : "Luna Ramirez", 
            "password" : "12341234", 
            "email" : "diana@gmail.com"
        },
        { 
            "_id" : "5e8d6defa387c752dc3e6889", 
            "number" : "45222887", 
            "name" : "Saúl Israel", 
            "lastname" : "Perez Prado", 
            "password" : "43214321", 
            "email" : "saul@gmail.com"
        }
    ]
}